{
  "type": "tab",
  "id": "3d9a4fd8.c265b",
  "label": "Sheet 1",
  "flow": [
    {
      "id": "8ff634c3.7009c8",
      "type": "postgresarray",
      "z": "3d9a4fd8.c265b",
      "columns": "[\"bar\",\"foo\"]"
    },
    {
      "id": "e1a4a370.1e5b6",
      "type": "http response",
      "z": "3d9a4fd8.c265b",
      "name": "",
      "x": 502,
      "y": 36,
      "wires": []
    },
    {
      "id": "fa738708.058c78",
      "type": "http in",
      "z": "3d9a4fd8.c265b",
      "name": "",
      "url": "/typeForm",
      "method": "post",
      "swaggerDoc": "",
      "x": 82,
      "y": 214,
      "wires": [
        [
          "4d7d3e7a.b282c",
          "e1a4a370.1e5b6",
          "41cec3c4.be313c",
          "3a6767d7.c59898"
        ]
      ]
    },
    {
      "id": "4d7d3e7a.b282c",
      "type": "debug",
      "z": "3d9a4fd8.c265b",
      "name": "",
      "active": true,
      "console": "false",
      "complete": "false",
      "x": 578,
      "y": 237,
      "wires": []
    },
    {
      "id": "e410cb6.f1bef38",
      "type": "catch",
      "z": "3d9a4fd8.c265b",
      "name": "",
      "scope": null,
      "x": 598,
      "y": 107,
      "wires": [
        [
          "610e2334.9ef1dc"
        ]
      ]
    },
    {
      "id": "e1a4a370.1e5b6",
      "type": "http response",
      "z": "3d9a4fd8.c265b",
      "name": "",
      "x": 419,
      "y": 94,
      "wires": []
    },
    {
      "id": "fa738708.058c78",
      "type": "http in",
      "z": "3d9a4fd8.c265b",
      "name": "",
      "url": "/typeForm",
      "method": "post",
      "swaggerDoc": "",
      "x": 141,
      "y": 187,
      "wires": [
        [
          "4d7d3e7a.b282c",
          "e1a4a370.1e5b6"
        ]
      ]
    },
    {
      "id": "4d7d3e7a.b282c",
      "type": "debug",
      "z": "3d9a4fd8.c265b",
      "name": "",
      "active": true,
      "console": "false",
      "complete": "false",
      "x": 472,
      "y": 188,
      "wires": []
    },
    {
      "id": "e410cb6.f1bef38",
      "type": "catch",
      "z": "3d9a4fd8.c265b",
      "name": "",
      "scope": null,
      "x": 421,
      "y": 389,
      "wires": [
        []
      ]
    },
    {
      "id": "e1a4a370.1e5b6",
      "type": "http response",
      "z": "3d9a4fd8.c265b",
      "name": "",
      "x": 419,
      "y": 94,
      "wires": []
    },
    {
      "id": "fa738708.058c78",
      "type": "http in",
      "z": "3d9a4fd8.c265b",
      "name": "",
      "url": "/typeForm",
      "method": "post",
      "swaggerDoc": "",
      "x": 141,
      "y": 187,
      "wires": [
        [
          "4d7d3e7a.b282c",
          "e1a4a370.1e5b6"
        ]
      ]
    },
    {
      "id": "4d7d3e7a.b282c",
      "type": "debug",
      "z": "3d9a4fd8.c265b",
      "name": "",
      "active": true,
      "console": "false",
      "complete": "false",
      "x": 472,
      "y": 188,
      "wires": []
    },
    {
      "id": "e410cb6.f1bef38",
      "type": "catch",
      "z": "3d9a4fd8.c265b",
      "name": "",
      "scope": null,
      "x": 421,
      "y": 389,
      "wires": [
        []
      ]
    },
    {
      "id": "41cec3c4.be313c",
      "type": "debug",
      "z": "3d9a4fd8.c265b",
      "name": "",
      "active": true,
      "console": "false",
      "complete": "false",
      "x": 293,
      "y": 368,
      "wires": []
    },
    {
      "id": "1ce2eac5.e31d15",
      "type": "PG Insert",
      "z": "3d9a4fd8.c265b",
      "name": "",
      "table": "typeform",
      "columns": "8ff634c3.7009c8",
      "requireAll": 1,
      "x": 412,
      "y": 174,
      "wires": [
        [
          "e1a4a370.1e5b6",
          "4d7d3e7a.b282c",
          "610e2334.9ef1dc"
        ]
      ]
    },
    {
      "id": "610e2334.9ef1dc",
      "type": "PG Connection",
      "z": "3d9a4fd8.c265b",
      "postgresdb": "a724df88.58db2",
      "name": "",
      "output": false,
      "outputs": 0,
      "x": 604,
      "y": 179,
      "wires": []
    },
    {
      "id": "3a6767d7.c59898",
      "type": "function",
      "z": "3d9a4fd8.c265b",
      "name": "",
      "func": "return {\n    payload : {\n        foo : msg.payload['Foo?'],\n        bar : mas.payload.Bar\n    }\n}",
      "outputs": 1,
      "noerr": 0,
      "x": 240,
      "y": 210,
      "wires": [
        [
          "1ce2eac5.e31d15",
          "69dda4f2.96225c"
        ]
      ]
    },
    {
      "id": "69dda4f2.96225c",
      "type": "debug",
      "z": "3d9a4fd8.c265b",
      "name": "",
      "active": true,
      "console": "false",
      "complete": "true",
      "x": 404,
      "y": 302,
      "wires": []
    }
  ]
}