{
  "type": "tab",
  "id": "426b2b0d.bd94d4",
  "label": "Sheet 2",
  "flow": [
    {
      "id": "f6441f63.09bbe",
      "type": "postgresarray",
      "z": "426b2b0d.bd94d4",
      "columns": "[\"bar\",\"foo\"]"
    },
    {
      "id": "7b7da7e4.848258",
      "type": "http in",
      "z": "426b2b0d.bd94d4",
      "name": "",
      "url": "/typeForm",
      "method": "post",
      "swaggerDoc": "",
      "x": 91,
      "y": 301,
      "wires": [
        [
          "c2290482.3dd6f8",
          "7b9d0b42.8462f4",
          "61253967.9edac8"
        ]
      ]
    },
    {
      "id": "6add3ad.f9522c4",
      "type": "catch",
      "z": "426b2b0d.bd94d4",
      "name": "",
      "scope": null,
      "x": 692,
      "y": 144,
      "wires": [
        [
          "202a6840.dfd598"
        ]
      ]
    },
    {
      "id": "61253967.9edac8",
      "type": "http response",
      "z": "426b2b0d.bd94d4",
      "name": "",
      "x": 281,
      "y": 148,
      "wires": []
    },
    {
      "id": "f5235df.f0adca",
      "type": "debug",
      "z": "426b2b0d.bd94d4",
      "name": "",
      "active": true,
      "console": "true",
      "complete": "payload",
      "x": 606,
      "y": 271,
      "wires": []
    },
    {
      "id": "c2290482.3dd6f8",
      "type": "debug",
      "z": "426b2b0d.bd94d4",
      "name": "",
      "active": true,
      "console": "false",
      "complete": "false",
      "x": 387,
      "y": 405,
      "wires": []
    },
    {
      "id": "a5a0816d.5a5f8",
      "type": "PG Insert",
      "z": "426b2b0d.bd94d4",
      "name": "",
      "table": "typeform",
      "columns": "f6441f63.09bbe",
      "requireAll": 1,
      "x": 476,
      "y": 187,
      "wires": [
        [
          "f5235df.f0adca",
          "202a6840.dfd598"
        ]
      ]
    },
    {
      "id": "202a6840.dfd598",
      "type": "PG Connection",
      "z": "426b2b0d.bd94d4",
      "postgresdb": "a724df88.58db2",
      "name": "",
      "output": false,
      "outputs": 0,
      "x": 698,
      "y": 216,
      "wires": []
    },
    {
      "id": "7b9d0b42.8462f4",
      "type": "function",
      "z": "426b2b0d.bd94d4",
      "name": "",
      "func": "return {\n    payload : {\n        foo : msg.payload['Foo?'],\n        bar : msg.payload.Bar\n    }\n}",
      "outputs": 1,
      "noerr": 0,
      "x": 334,
      "y": 247,
      "wires": [
        [
          "a5a0816d.5a5f8",
          "144ff8e1.ebb007"
        ]
      ]
    },
    {
      "id": "144ff8e1.ebb007",
      "type": "debug",
      "z": "426b2b0d.bd94d4",
      "name": "",
      "active": true,
      "console": "true",
      "complete": "true",
      "x": 498,
      "y": 339,
      "wires": []
    }
  ]
}